<svg xmlns="http://www.w3.org/2000/svg" width="48" height="48" viewBox="0 0 48 48">
  <path id="fi-rr-user-remove" d="M18,24A12,12,0,1,0,6,12,12,12,0,0,0,18,24ZM18,4a8,8,0,1,1-8,8A8,8,0,0,1,18,4ZM36,46a2,2,0,1,1-4,0A14,14,0,1,0,4,46a2,2,0,0,1-4,0,18,18,0,0,1,36,0ZM47.414,28.586a2,2,0,1,1-2.828,2.828L41,27.828l-3.586,3.586a2,2,0,0,1-2.828,0c-.781-.781,0-2.828,0-2.828L38.172,25l-3.586-3.586a2,2,0,1,1,2.828-2.828L41,22.172l3.586-3.586a2,2,0,1,1,2.828,2.828L43.828,25Z" fill="#285f94"/>
</svg>
